<?xml version="1.0" encoding="UTF-8"?>
<COLLADA xmlns="http://www.collada.org/2005/11/COLLADASchema" version="1.4.1">
    <asset>
        <contributor>
            <author>VCGLab</author>
            <authoring_tool>VCGLib | MeshLab</authoring_tool>
        </contributor>
        <created>Wed Dec 13 19:00:34 2017 GMT</created>
        <modified>Wed Dec 13 19:00:34 2017 GMT</modified>
        <up_axis>Y_UP</up_axis>
    </asset>
    <library_geometries>
        <geometry id="shape0-lib" name="shape0">
            <mesh>
                <source id="shape0-lib-positions" name="position">
                    <float_array id="shape0-lib-positions-array" count="234">105.566 1068.32 134.474 102.874 1068.32 134.588 102.874 153.924 134.588 100.181 153.924 134.474 100.181 1068.32 134.474 94.8734 1068.32 133.563 94.8734 153.924 133.563 89.7959 1068.32 131.769 89.7959 153.924 131.769 85.0945 1068.32 129.143 85.0945 153.924 129.143 80.9047 1068.32 125.76 80.9047 153.924 125.76 77.3468 1068.32 121.718 77.3468 153.924 121.718 74.5233 1068.32 117.132 74.5233 153.924 117.132 72.5154 1068.32 112.135 72.5154 153.924 112.135 71.3809 1068.32 106.871 71.3809 153.924 106.871 71.1523 1068.32 101.49 71.1523 153.924 101.49 71.8363 1068.32 96.1489 71.8363 153.924 96.1489 73.4133 1068.32 90.9997 73.4133 153.924 90.9997 75.8377 1068.32 86.1912 75.8377 153.924 86.1912 79.0399 1068.32 81.8615 79.0399 153.924 81.8615 82.9277 1068.32 78.1353 82.9277 153.924 78.1353 87.3894 1068.32 75.1197 87.3894 153.924 75.1197 92.2965 1068.32 72.9016 92.2965 153.924 72.9016 97.5079 1068.32 71.5446 97.5079 153.924 71.5446 102.874 1068.32 71.0879 102.874 153.924 71.0879 108.24 1068.32 71.5446 108.24 153.924 71.5446 113.451 1068.32 72.9016 113.451 153.924 72.9016 118.358 1068.32 75.1197 118.358 153.924 75.1197 122.82 1068.32 78.1353 122.82 153.924 78.1353 126.708 1068.32 81.8615 126.708 153.924 81.8615 129.91 1068.32 86.1912 129.91 153.924 86.1912 132.334 1068.32 90.9997 132.334 153.924 90.9997 133.911 1068.32 96.1489 133.911 153.924 96.1489 134.595 1068.32 101.49 134.595 153.924 101.49 134.367 1068.32 106.871 134.367 153.924 106.871 133.232 1068.32 112.135 133.232 153.924 112.135 131.224 1068.32 117.132 131.224 153.924 117.132 128.401 1068.32 121.718 128.401 153.924 121.718 124.843 1068.32 125.76 124.843 153.924 125.76 120.653 1068.32 129.143 120.653 153.924 129.143 115.952 1068.32 131.769 115.952 153.924 131.769 110.874 1068.32 133.563 110.874 153.924 133.563 105.566 153.924 134.474 102.874 1068.32 102.838 102.874 153.924 102.838</float_array>
                    <technique_common>
                        <accessor count="78" source="#shape0-lib-positions-array" stride="3">
                            <param name="X" type="float"/>
                            <param name="Y" type="float"/>
                            <param name="Z" type="float"/>
                        </accessor>
                    </technique_common>
                </source>
                <source id="shape0-lib-normals" name="normal">
                    <float_array id="shape0-lib-normals-array" count="456">0.0424469 0 0.999099 -0.0424469 0 0.999099 -0.0424469 0 0.999099 -0.168998 0 0.985617 -0.168998 0 0.985617 -0.333141 0 0.942877 -0.333141 0 0.942877 -0.487695 0 0.873014 -0.487695 0 0.873014 -0.628221 0 0.778035 -0.628221 0 0.778035 -0.750671 0 0.660676 -0.750671 0 0.660676 -0.851529 0 0.524307 -0.851529 0 0.524307 -0.927889 0 0.372857 -0.927889 0 0.372857 -0.977555 0 0.21068 -0.977555 0 0.21068 -0.999099 0 0.0424399 -0.999099 0 0.0424399 -0.9919 0 -0.127018 -0.9919 0 -0.127018 -0.956167 0 -0.292823 -0.956167 0 -0.292823 -0.892926 0 -0.450203 -0.892926 0 -0.450203 -0.803997 0 -0.594634 -0.803997 0 -0.594634 -0.691939 0 -0.721956 -0.691939 0 -0.721956 -0.559975 0 -0.82851 -0.559975 0 -0.82851 -0.4119 0 -0.911229 -0.4119 0 -0.911229 -0.251979 0 -0.967733 -0.251979 0 -0.967733 -0.0848061 0 -0.996397 -0.0848061 0 -0.996397 0.0848061 0 -0.996397 0.0848061 0 -0.996397 0.251979 0 -0.967733 0.251979 0 -0.967733 0.4119 0 -0.911229 0.4119 0 -0.911229 0.559975 0 -0.82851 0.559975 0 -0.82851 0.69194 0 -0.721955 0.69194 0 -0.721955 0.803995 0 -0.594636 0.803995 0 -0.594636 0.892928 0 -0.4502 0.892928 0 -0.4502 0.956167 0 -0.292823 0.956167 0 -0.292823 0.9919 0 -0.127019 0.9919 0 -0.127019 0.999099 0 0.0424399 0.999099 0 0.0424399 0.977555 0 0.21068 0.977555 0 0.21068 0.927889 0 0.372858 0.927889 0 0.372858 0.851529 0 0.524307 0.851529 0 0.524307 0.750672 0 0.660676 0.750672 0 0.660676 0.628221 0 0.778035 0.628221 0 0.778035 0.487695 0 0.873014 0.487695 0 0.873014 0.33314 0 0.942877 0.33314 0 0.942877 0.168998 0 0.985617 0.168998 0 0.985617 0.0424469 0 0.999099 0 1 0 0 1 0 0 1 0 0 1 0 0 1 0 0 1 0 0 1 0 0 1 0 0 1 0 0 1 0 0 1 0 0 1 0 0 1 0 0 1 0 0 1 0 0 1 0 0 1 0 0 1 0 0 1 0 0 1 0 0 1 0 0 1 0 0 1 0 0 1 0 0 1 0 0 1 0 0 1 0 0 1 0 0 1 0 0 1 0 0 1 0 0 1 0 0 1 0 0 1 0 0 1 0 0 1 0 0 1 0 0 1 0 0 -1 0 0 -1 0 0 -1 0 0 -1 0 0 -1 0 0 -1 0 0 -1 0 0 -1 0 0 -1 0 0 -1 0 0 -1 0 0 -1 0 0 -1 0 0 -1 0 0 -1 0 0 -1 0 0 -1 0 0 -1 0 0 -1 0 0 -1 0 0 -1 0 0 -1 0 0 -1 0 0 -1 0 0 -1 0 0 -1 0 0 -1 0 0 -1 0 0 -1 0 0 -1 0 0 -1 0 0 -1 0 0 -1 0 0 -1 0 0 -1 0 0 -1 0 0 -1 0 0 -1 0</float_array>
                    <technique_common>
                        <accessor count="152" source="#shape0-lib-normals-array" stride="3">
                            <param name="X" type="float"/>
                            <param name="Y" type="float"/>
                            <param name="Z" type="float"/>
                        </accessor>
                    </technique_common>
                </source>
                <vertices id="shape0-lib-vertices">
                    <input semantic="POSITION" source="#shape0-lib-positions"/>
                </vertices>
                <triangles count="152">
                    <input offset="0" semantic="VERTEX" source="#shape0-lib-vertices"/>
                    <input offset="1" semantic="NORMAL" source="#shape0-lib-normals"/>
                    <p>0 0 1 0 2 0 2 1 1 1 3 1 1 2 4 2 3 2 3 3 4 3 5 3 3 4 5 4 6 4 6 5 5 5 7 5 6 6 7 6 8 6 8 7 7 7 9 7 8 8 9 8 10 8 10 9 9 9 11 9 10 10 11 10 12 10 12 11 11 11 13 11 12 12 13 12 14 12 14 13 13 13 15 13 14 14 15 14 16 14 16 15 15 15 17 15 16 16 17 16 18 16 18 17 17 17 19 17 18 18 19 18 20 18 20 19 19 19 21 19 20 20 21 20 22 20 22 21 21 21 23 21 22 22 23 22 24 22 24 23 23 23 25 23 24 24 25 24 26 24 26 25 25 25 27 25 26 26 27 26 28 26 28 27 27 27 29 27 28 28 29 28 30 28 30 29 29 29 31 29 30 30 31 30 32 30 32 31 31 31 33 31 32 32 33 32 34 32 34 33 33 33 35 33 34 34 35 34 36 34 36 35 35 35 37 35 36 36 37 36 38 36 38 37 37 37 39 37 38 38 39 38 40 38 40 39 39 39 41 39 40 40 41 40 42 40 42 41 41 41 43 41 42 42 43 42 44 42 44 43 43 43 45 43 44 44 45 44 46 44 46 45 45 45 47 45 46 46 47 46 48 46 48 47 47 47 49 47 48 48 49 48 50 48 50 49 49 49 51 49 50 50 51 50 52 50 52 51 51 51 53 51 52 52 53 52 54 52 54 53 53 53 55 53 54 54 55 54 56 54 56 55 55 55 57 55 56 56 57 56 58 56 58 57 57 57 59 57 58 58 59 58 60 58 60 59 59 59 61 59 60 60 61 60 62 60 62 61 61 61 63 61 62 62 63 62 64 62 64 63 63 63 65 63 64 64 65 64 66 64 66 65 65 65 67 65 66 66 67 66 68 66 68 67 67 67 69 67 68 68 69 68 70 68 70 69 69 69 71 69 70 70 71 70 72 70 72 71 71 71 73 71 72 72 73 72 74 72 74 73 73 73 0 73 74 74 0 74 75 74 75 75 0 75 2 75 1 76 0 76 76 76 1 77 76 77 4 77 9 78 7 78 76 78 76 79 7 79 5 79 76 80 5 80 4 80 15 81 13 81 76 81 76 82 13 82 11 82 76 83 11 83 9 83 21 84 19 84 76 84 76 85 19 85 17 85 76 86 17 86 15 86 27 87 25 87 76 87 76 88 25 88 23 88 76 89 23 89 21 89 33 90 31 90 76 90 76 91 31 91 29 91 76 92 29 92 27 92 39 93 37 93 76 93 76 94 37 94 35 94 76 95 35 95 33 95 45 96 43 96 76 96 76 97 43 97 41 97 76 98 41 98 39 98 51 99 49 99 76 99 76 100 49 100 47 100 76 101 47 101 45 101 57 102 55 102 76 102 76 103 55 103 53 103 76 104 53 104 51 104 63 105 61 105 76 105 76 106 61 106 59 106 76 107 59 107 57 107 69 108 67 108 76 108 76 109 67 109 65 109 76 110 65 110 63 110 0 111 73 111 76 111 76 112 73 112 71 112 76 113 71 113 69 113 2 114 3 114 77 114 2 115 77 115 75 115 70 116 72 116 77 116 77 117 72 117 74 117 77 118 74 118 75 118 64 119 66 119 77 119 77 120 66 120 68 120 77 121 68 121 70 121 58 122 60 122 77 122 77 123 60 123 62 123 77 124 62 124 64 124 52 125 54 125 77 125 77 126 54 126 56 126 77 127 56 127 58 127 46 128 48 128 77 128 77 129 48 129 50 129 77 130 50 130 52 130 40 131 42 131 77 131 77 132 42 132 44 132 77 133 44 133 46 133 34 134 36 134 77 134 77 135 36 135 38 135 77 136 38 136 40 136 28 137 30 137 77 137 77 138 30 138 32 138 77 139 32 139 34 139 22 140 24 140 77 140 77 141 24 141 26 141 77 142 26 142 28 142 16 143 18 143 77 143 77 144 18 144 20 144 77 145 20 145 22 145 10 146 12 146 77 146 77 147 12 147 14 147 77 148 14 148 16 148 3 149 6 149 77 149 77 150 6 150 8 150 77 151 8 151 10 151</p>
                </triangles>
            </mesh>
        </geometry>
    </library_geometries>
    <library_visual_scenes>
        <visual_scene id="VisualSceneNode" name="VisualScene">
            <node id="node" name="node">
                <instance_geometry url="#shape0-lib"/>
            </node>
        </visual_scene>
    </library_visual_scenes>
    <scene>
        <instance_visual_scene url="#VisualSceneNode"/>
    </scene>
</COLLADA>
